%YAML 1.1
%TAG !u! tag:unity3d.com,2011:
--- !u!74 &7400000
AnimationClip:
  m_ObjectHideFlags: 0
  m_CorrespondingSourceObject: {fileID: 0}
  m_PrefabInstance: {fileID: 0}
  m_PrefabAsset: {fileID: 0}
  m_Name: JetPack
  serializedVersion: 6
  m_Legacy: 0
  m_Compressed: 0
  m_UseHighQualityCurve: 1
  m_RotationCurves: []
  m_CompressedRotationCurves: []
  m_EulerCurves: []
  m_PositionCurves: []
  m_ScaleCurves: []
  m_FloatCurves: []
  m_PPtrCurves:
  - curve:
    - time: 0
      value: {fileID: 21300000, guid: ab813dbe2697d124084961906cefb816, type: 3}
    - time: 0.083333336
      value: {fileID: 21300000, guid: 4b2d7ae874252074a9845d902669ae76, type: 3}
    - time: 0.16666667
      value: {fileID: 21300000, guid: d7e8144f144e78349a6c4e4c23c2cf69, type: 3}
    - time: 0.25
      value: {fileID: 21300000, guid: 1a7667632217fb1428ae3acd9f739b66, type: 3}
    - time: 0.33333334
      value: {fileID: 21300000, guid: 517b9e2b95f807b4bb924ce9c99c1779, type: 3}
    - time: 0.41666666
      value: {fileID: 21300000, guid: 0d6c68f7fdbe0204b930daa7a918b965, type: 3}
    - time: 0.5
      value: {fileID: 21300000, guid: 18e73780af6f744469036c3a8eba8fc9, type: 3}
    attribute: m_Sprite
    path: 
    classID: 212
    script: {fileID: 0}
  m_SampleRate: 60
  m_WrapMode: 0
  m_Bounds:
    m_Center: {x: 0, y: 0, z: 0}
    m_Extent: {x: 0, y: 0, z: 0}
  m_ClipBindingConstant:
    genericBindings:
    - serializedVersion: 2
      path: 0
      attribute: 0
      script: {fileID: 0}
      typeID: 212
      customType: 23
      isPPtrCurve: 1
    pptrCurveMapping:
    - {fileID: 21300000, guid: ab813dbe2697d124084961906cefb816, type: 3}
    - {fileID: 21300000, guid: 4b2d7ae874252074a9845d902669ae76, type: 3}
    - {fileID: 21300000, guid: d7e8144f144e78349a6c4e4c23c2cf69, type: 3}
    - {fileID: 21300000, guid: 1a7667632217fb1428ae3acd9f739b66, type: 3}
    - {fileID: 21300000, guid: 517b9e2b95f807b4bb924ce9c99c1779, type: 3}
    - {fileID: 21300000, guid: 0d6c68f7fdbe0204b930daa7a918b965, type: 3}
    - {fileID: 21300000, guid: 18e73780af6f744469036c3a8eba8fc9, type: 3}
  m_AnimationClipSettings:
    serializedVersion: 2
    m_AdditiveReferencePoseClip: {fileID: 0}
    m_AdditiveReferencePoseTime: 0
    m_StartTime: 0
    m_StopTime: 0.51666665
    m_OrientationOffsetY: 0
    m_Level: 0
    m_CycleOffset: 0
    m_HasAdditiveReferencePose: 0
    m_LoopTime: 1
    m_LoopBlend: 0
    m_LoopBlendOrientation: 0
    m_LoopBlendPositionY: 0
    m_LoopBlendPositionXZ: 0
    m_KeepOriginalOrientation: 0
    m_KeepOriginalPositionY: 1
    m_KeepOriginalPositionXZ: 0
    m_HeightFromFeet: 0
    m_Mirror: 0
  m_EditorCurves: []
  m_EulerEditorCurves: []
  m_HasGenericRootTransform: 0
  m_HasMotionFloatCurves: 0
  m_Events: []
