%YAML 1.1
%TAG !u! tag:unity3d.com,2011:
--- !u!74 &7400000
AnimationClip:
  m_ObjectHideFlags: 0
  m_CorrespondingSourceObject: {fileID: 0}
  m_PrefabInstance: {fileID: 0}
  m_PrefabAsset: {fileID: 0}
  m_Name: Fly
  serializedVersion: 6
  m_Legacy: 0
  m_Compressed: 0
  m_UseHighQualityCurve: 1
  m_RotationCurves: []
  m_CompressedRotationCurves: []
  m_EulerCurves: []
  m_PositionCurves: []
  m_ScaleCurves: []
  m_FloatCurves: []
  m_PPtrCurves:
  - curve:
    - time: 0
      value: {fileID: 21300000, guid: ed0df5383537e694387d1741c123ae04, type: 3}
    - time: 0.05
      value: {fileID: 21300000, guid: 915a119667a41c74bb6a8f0e90fd0db8, type: 3}
    - time: 0.1
      value: {fileID: 21300000, guid: a293a0e250d88064dbc181d082e1a3e2, type: 3}
    - time: 0.15
      value: {fileID: 21300000, guid: 779d8ad80dc9ccb4a85fe11cbfc56bd2, type: 3}
    - time: 0.16666667
      value: {fileID: 21300000, guid: cce4e00e942d7e2428734f16ca9680d2, type: 3}
    - time: 0.21666667
      value: {fileID: 21300000, guid: 78d13aaf00dc858499900da2808b6ccb, type: 3}
    - time: 0.23333333
      value: {fileID: 21300000, guid: 27e738056fc667f4382f9858af631838, type: 3}
    - time: 0.26666668
      value: {fileID: 21300000, guid: b07624b96a8d9b544a85a5cda7ed99ab, type: 3}
    - time: 0.28333333
      value: {fileID: 21300000, guid: 2dc7aa12742766642a9255fb16274c6a, type: 3}
    - time: 0.35
      value: {fileID: 21300000, guid: af81a43b1610faf4cbcf1075c19fa242, type: 3}
    - time: 0.38333333
      value: {fileID: 21300000, guid: 96a9d5f392d1f7245bff98982b9ce7e5, type: 3}
    - time: 0.4
      value: {fileID: 21300000, guid: ed5c4d08c578bdd4db2d4c1ce7af7555, type: 3}
    - time: 0.41666666
      value: {fileID: 21300000, guid: a97997dcc86e22941803307996e855e3, type: 3}
    - time: 0.48333332
      value: {fileID: 21300000, guid: 50cd0b64533c19c44926979dd5a07bf0, type: 3}
    - time: 0.5
      value: {fileID: 21300000, guid: 0bc6b05c64d7d9444a0951eea2738f30, type: 3}
    - time: 0.53333336
      value: {fileID: 21300000, guid: 28dd087445aff33449e318c590b2bc25, type: 3}
    - time: 0.5833333
      value: {fileID: 21300000, guid: ca2aa9bd0c6c32b409a7960be4506f0d, type: 3}
    - time: 0.6
      value: {fileID: 21300000, guid: 385de8c7aabb2004da07c2f893e2ae83, type: 3}
    - time: 0.6333333
      value: {fileID: 21300000, guid: bfa71bf2faf3cbb4b88f2b0f24fec30d, type: 3}
    - time: 0.68333334
      value: {fileID: 21300000, guid: ed0df5383537e694387d1741c123ae04, type: 3}
    - time: 0.71666664
      value: {fileID: 21300000, guid: 915a119667a41c74bb6a8f0e90fd0db8, type: 3}
    - time: 0.73333335
      value: {fileID: 21300000, guid: 4ec2667f7671efa45b0367b238843ca3, type: 3}
    - time: 0.78333336
      value: {fileID: 21300000, guid: a293a0e250d88064dbc181d082e1a3e2, type: 3}
    - time: 0.8333333
      value: {fileID: 21300000, guid: 779d8ad80dc9ccb4a85fe11cbfc56bd2, type: 3}
    - time: 0.9
      value: {fileID: 21300000, guid: 78d13aaf00dc858499900da2808b6ccb, type: 3}
    - time: 0.9166667
      value: {fileID: 21300000, guid: 27e738056fc667f4382f9858af631838, type: 3}
    - time: 0.93333334
      value: {fileID: 21300000, guid: b07624b96a8d9b544a85a5cda7ed99ab, type: 3}
    - time: 0.96666664
      value: {fileID: 21300000, guid: 2dc7aa12742766642a9255fb16274c6a, type: 3}
    - time: 1.0333333
      value: {fileID: 21300000, guid: af81a43b1610faf4cbcf1075c19fa242, type: 3}
    - time: 1.05
      value: {fileID: 21300000, guid: 96a9d5f392d1f7245bff98982b9ce7e5, type: 3}
    - time: 1.0833334
      value: {fileID: 21300000, guid: ed5c4d08c578bdd4db2d4c1ce7af7555, type: 3}
    - time: 1.1
      value: {fileID: 21300000, guid: a97997dcc86e22941803307996e855e3, type: 3}
    - time: 1.15
      value: {fileID: 21300000, guid: 50cd0b64533c19c44926979dd5a07bf0, type: 3}
    - time: 1.1666666
      value: {fileID: 21300000, guid: 0bc6b05c64d7d9444a0951eea2738f30, type: 3}
    - time: 1.2166667
      value: {fileID: 21300000, guid: 28dd087445aff33449e318c590b2bc25, type: 3}
    - time: 1.2666667
      value: {fileID: 21300000, guid: ca2aa9bd0c6c32b409a7960be4506f0d, type: 3}
    - time: 1.3166667
      value: {fileID: 21300000, guid: bfa71bf2faf3cbb4b88f2b0f24fec30d, type: 3}
    - time: 1.35
      value: {fileID: 21300000, guid: ed0df5383537e694387d1741c123ae04, type: 3}
    - time: 1.3833333
      value: {fileID: 21300000, guid: 915a119667a41c74bb6a8f0e90fd0db8, type: 3}
    - time: 1.4
      value: {fileID: 21300000, guid: 4ec2667f7671efa45b0367b238843ca3, type: 3}
    - time: 1.45
      value: {fileID: 21300000, guid: a293a0e250d88064dbc181d082e1a3e2, type: 3}
    - time: 1.4833333
      value: {fileID: 21300000, guid: 779d8ad80dc9ccb4a85fe11cbfc56bd2, type: 3}
    - time: 1.5
      value: {fileID: 21300000, guid: cce4e00e942d7e2428734f16ca9680d2, type: 3}
    - time: 1.5666667
      value: {fileID: 21300000, guid: 78d13aaf00dc858499900da2808b6ccb, type: 3}
    - time: 1.5833334
      value: {fileID: 21300000, guid: 27e738056fc667f4382f9858af631838, type: 3}
    - time: 1.6
      value: {fileID: 21300000, guid: b07624b96a8d9b544a85a5cda7ed99ab, type: 3}
    - time: 1.6333333
      value: {fileID: 21300000, guid: 2dc7aa12742766642a9255fb16274c6a, type: 3}
    - time: 1.7
      value: {fileID: 21300000, guid: af81a43b1610faf4cbcf1075c19fa242, type: 3}
    - time: 1.7166667
      value: {fileID: 21300000, guid: 96a9d5f392d1f7245bff98982b9ce7e5, type: 3}
    - time: 1.75
      value: {fileID: 21300000, guid: ed5c4d08c578bdd4db2d4c1ce7af7555, type: 3}
    - time: 1.7666667
      value: {fileID: 21300000, guid: a97997dcc86e22941803307996e855e3, type: 3}
    - time: 1.8166667
      value: {fileID: 21300000, guid: 50cd0b64533c19c44926979dd5a07bf0, type: 3}
    - time: 1.8333334
      value: {fileID: 21300000, guid: 0bc6b05c64d7d9444a0951eea2738f30, type: 3}
    - time: 1.8833333
      value: {fileID: 21300000, guid: 28dd087445aff33449e318c590b2bc25, type: 3}
    - time: 1.9333333
      value: {fileID: 21300000, guid: ca2aa9bd0c6c32b409a7960be4506f0d, type: 3}
    - time: 1.9833333
      value: {fileID: 21300000, guid: bfa71bf2faf3cbb4b88f2b0f24fec30d, type: 3}
    attribute: m_Sprite
    path: 
    classID: 212
    script: {fileID: 0}
  m_SampleRate: 60
  m_WrapMode: 0
  m_Bounds:
    m_Center: {x: 0, y: 0, z: 0}
    m_Extent: {x: 0, y: 0, z: 0}
  m_ClipBindingConstant:
    genericBindings:
    - serializedVersion: 2
      path: 0
      attribute: 0
      script: {fileID: 0}
      typeID: 212
      customType: 23
      isPPtrCurve: 1
    pptrCurveMapping:
    - {fileID: 21300000, guid: ed0df5383537e694387d1741c123ae04, type: 3}
    - {fileID: 21300000, guid: 915a119667a41c74bb6a8f0e90fd0db8, type: 3}
    - {fileID: 21300000, guid: a293a0e250d88064dbc181d082e1a3e2, type: 3}
    - {fileID: 21300000, guid: 779d8ad80dc9ccb4a85fe11cbfc56bd2, type: 3}
    - {fileID: 21300000, guid: cce4e00e942d7e2428734f16ca9680d2, type: 3}
    - {fileID: 21300000, guid: 78d13aaf00dc858499900da2808b6ccb, type: 3}
    - {fileID: 21300000, guid: 27e738056fc667f4382f9858af631838, type: 3}
    - {fileID: 21300000, guid: b07624b96a8d9b544a85a5cda7ed99ab, type: 3}
    - {fileID: 21300000, guid: 2dc7aa12742766642a9255fb16274c6a, type: 3}
    - {fileID: 21300000, guid: af81a43b1610faf4cbcf1075c19fa242, type: 3}
    - {fileID: 21300000, guid: 96a9d5f392d1f7245bff98982b9ce7e5, type: 3}
    - {fileID: 21300000, guid: ed5c4d08c578bdd4db2d4c1ce7af7555, type: 3}
    - {fileID: 21300000, guid: a97997dcc86e22941803307996e855e3, type: 3}
    - {fileID: 21300000, guid: 50cd0b64533c19c44926979dd5a07bf0, type: 3}
    - {fileID: 21300000, guid: 0bc6b05c64d7d9444a0951eea2738f30, type: 3}
    - {fileID: 21300000, guid: 28dd087445aff33449e318c590b2bc25, type: 3}
    - {fileID: 21300000, guid: ca2aa9bd0c6c32b409a7960be4506f0d, type: 3}
    - {fileID: 21300000, guid: 385de8c7aabb2004da07c2f893e2ae83, type: 3}
    - {fileID: 21300000, guid: bfa71bf2faf3cbb4b88f2b0f24fec30d, type: 3}
    - {fileID: 21300000, guid: ed0df5383537e694387d1741c123ae04, type: 3}
    - {fileID: 21300000, guid: 915a119667a41c74bb6a8f0e90fd0db8, type: 3}
    - {fileID: 21300000, guid: 4ec2667f7671efa45b0367b238843ca3, type: 3}
    - {fileID: 21300000, guid: a293a0e250d88064dbc181d082e1a3e2, type: 3}
    - {fileID: 21300000, guid: 779d8ad80dc9ccb4a85fe11cbfc56bd2, type: 3}
    - {fileID: 21300000, guid: 78d13aaf00dc858499900da2808b6ccb, type: 3}
    - {fileID: 21300000, guid: 27e738056fc667f4382f9858af631838, type: 3}
    - {fileID: 21300000, guid: b07624b96a8d9b544a85a5cda7ed99ab, type: 3}
    - {fileID: 21300000, guid: 2dc7aa12742766642a9255fb16274c6a, type: 3}
    - {fileID: 21300000, guid: af81a43b1610faf4cbcf1075c19fa242, type: 3}
    - {fileID: 21300000, guid: 96a9d5f392d1f7245bff98982b9ce7e5, type: 3}
    - {fileID: 21300000, guid: ed5c4d08c578bdd4db2d4c1ce7af7555, type: 3}
    - {fileID: 21300000, guid: a97997dcc86e22941803307996e855e3, type: 3}
    - {fileID: 21300000, guid: 50cd0b64533c19c44926979dd5a07bf0, type: 3}
    - {fileID: 21300000, guid: 0bc6b05c64d7d9444a0951eea2738f30, type: 3}
    - {fileID: 21300000, guid: 28dd087445aff33449e318c590b2bc25, type: 3}
    - {fileID: 21300000, guid: ca2aa9bd0c6c32b409a7960be4506f0d, type: 3}
    - {fileID: 21300000, guid: bfa71bf2faf3cbb4b88f2b0f24fec30d, type: 3}
    - {fileID: 21300000, guid: ed0df5383537e694387d1741c123ae04, type: 3}
    - {fileID: 21300000, guid: 915a119667a41c74bb6a8f0e90fd0db8, type: 3}
    - {fileID: 21300000, guid: 4ec2667f7671efa45b0367b238843ca3, type: 3}
    - {fileID: 21300000, guid: a293a0e250d88064dbc181d082e1a3e2, type: 3}
    - {fileID: 21300000, guid: 779d8ad80dc9ccb4a85fe11cbfc56bd2, type: 3}
    - {fileID: 21300000, guid: cce4e00e942d7e2428734f16ca9680d2, type: 3}
    - {fileID: 21300000, guid: 78d13aaf00dc858499900da2808b6ccb, type: 3}
    - {fileID: 21300000, guid: 27e738056fc667f4382f9858af631838, type: 3}
    - {fileID: 21300000, guid: b07624b96a8d9b544a85a5cda7ed99ab, type: 3}
    - {fileID: 21300000, guid: 2dc7aa12742766642a9255fb16274c6a, type: 3}
    - {fileID: 21300000, guid: af81a43b1610faf4cbcf1075c19fa242, type: 3}
    - {fileID: 21300000, guid: 96a9d5f392d1f7245bff98982b9ce7e5, type: 3}
    - {fileID: 21300000, guid: ed5c4d08c578bdd4db2d4c1ce7af7555, type: 3}
    - {fileID: 21300000, guid: a97997dcc86e22941803307996e855e3, type: 3}
    - {fileID: 21300000, guid: 50cd0b64533c19c44926979dd5a07bf0, type: 3}
    - {fileID: 21300000, guid: 0bc6b05c64d7d9444a0951eea2738f30, type: 3}
    - {fileID: 21300000, guid: 28dd087445aff33449e318c590b2bc25, type: 3}
    - {fileID: 21300000, guid: ca2aa9bd0c6c32b409a7960be4506f0d, type: 3}
    - {fileID: 21300000, guid: bfa71bf2faf3cbb4b88f2b0f24fec30d, type: 3}
  m_AnimationClipSettings:
    serializedVersion: 2
    m_AdditiveReferencePoseClip: {fileID: 0}
    m_AdditiveReferencePoseTime: 0
    m_StartTime: 0
    m_StopTime: 2
    m_OrientationOffsetY: 0
    m_Level: 0
    m_CycleOffset: 0
    m_HasAdditiveReferencePose: 0
    m_LoopTime: 1
    m_LoopBlend: 0
    m_LoopBlendOrientation: 0
    m_LoopBlendPositionY: 0
    m_LoopBlendPositionXZ: 0
    m_KeepOriginalOrientation: 0
    m_KeepOriginalPositionY: 1
    m_KeepOriginalPositionXZ: 0
    m_HeightFromFeet: 0
    m_Mirror: 0
  m_EditorCurves: []
  m_EulerEditorCurves: []
  m_HasGenericRootTransform: 0
  m_HasMotionFloatCurves: 0
  m_Events: []
